id,name,model_id:id,group_id:id,perm_read,perm_write,perm_create,perm_unlink
access_academy_teachers,access_academy_teachers,model_academy_teachers,base.group_user,1,1,1,1
access_book_template,access_book_template,model_book_template,base.group_user,1,1,1,1
access_algorithm_template,access_algorithm_template,model_algorithm_template,base.group_user,1,1,1,1
access_checkbox_template,access_checkbox_template,model_checkbox_template,base.group_user,1,1,1,1
access_person,access_person,model_person,base.group_user,1,1,1,1